ecodiag workflow
…
To predict the driver probability of occurence based on new biological data, we use the run_DT function that takes as arguments the pathDT indicating the directory where the models have been saved and a metrics table containing the biological features of the new communities.

predictions <- run_DT(pathDT  = "models/",
                      metrics = as.data.frame(test_metrics))
#> 
#>  MATIERES_ORGANIQUES 
#> 
#>  MICROPOLLUANTS_MINERAUX 
#> 
#>  NITRATES 
#> 
#>  PESTICIDES

as.tbl(predictions)
#> # A tibble: 3,707 x 5
#>    ID    MATIERES_ORGANIQUES MICROPOLLUANTS_MINERAUX NITRATES PESTICIDES
#>    <fct>               <dbl>                   <dbl>    <dbl>      <dbl>
#>  1 1                  0.0607                   0.372    0.622      0.813
#>  2 2                  0.0430                   0.488    0.782      0.823
#>  3 3                  0.0160                   0.457    0.898      0.793
#>  4 4                  0.0449                   0.469    0.862      0.811
#>  5 5                  0.0252                   0.424    0.836      0.847
#>  6 6                  0.0708                   0.236    0.884      0.932
#>  7 7                  0.0549                   0.298    0.633      0.943
#>  8 8                  0.0935                   0.283    0.909      0.953
#>  9 9                  0.183                    0.226    0.679      0.970
#> 10 10                 0.229                    0.249    0.745      0.970
#> # ... with 3,697 more rows
…
